{
  "type": "service_account",
  "project_id": "lumonata-project",
  "private_key_id": "16c5df17b3eb2e7e2f44fb87f47b276926268768",
  "private_key": "-----BEGIN PRIVATE KEY-----\nMIIEvgIBADANBgkqhkiG9w0BAQEFAASCBKgwggSkAgEAAoIBAQDM1PEiLal8yhAA\nK6stglDGot9fQWHK8SV763aQo8PAktdoTtDFt1ZvOC+TQutI+RVjIM8PajKz/+n3\n078T1qR02mP9QiaT36XeKfWGl/Dq4Y8x5bN5iyS2CcVyn3YQ1Mrf0IkJmq3TGvqF\niYNbauVUMY+1/3afmJZ3Q5TQVJdIgECpIPxHzQPrsTJxfHpwU4g21h/tYSQ7ro+6\nS8kA9WF3is8WH3KzYhSy3qhM6IXr0OpGq1uhpxH4CrqqsKGsDlXHOgyOuvB1QjlU\n4Q9htQcs/fyq1zv697tmZW1AzzvmXYQqWpN8KhkLIxQ29gB6gLOKMnm+8DbHcYmp\nf0QMTszRAgMBAAECggEAaH++4ZwAGv0PerbMpvQT97MCWJuHo7yxTe5L1/DknmuL\n39hN5IDrZOR6SRvb46fIBIGpgYjBg1ltaRUrJ5ja4A7G8l78RXbVLWmkrFz5+SrI\nHkG89aZKPWDwzdCSsHWPZu4B69dxFQFvjA8i59G6W+DJG6XQRA3ZvdDJrBtr7v0t\npdukcMrM7dC0GTa70dxLb3ew0PXbAGzhLAUK5dTepzoUPV7z4O5dZ18kvfWmsTVf\n9ebN4AV7lFpTxYE/HrrCxcTkoeobCBJXiOGBD1NEofAv/wOD0VGudJtk0k2i+klw\nJGCDljuUcPqEv9qdbUKZOFTjmhHkT9uvqsE+ctQ+/QKBgQDupTrtdksVg7qtb9yB\nNkXasn/vOtEhDi6xMd7+mcoOWlvS+bnPlwEoQVWD7azhp77x996ZUGLbptrGvfDj\nK4Ok8g5U7s4yg0JlJpnJYVC0dyC2OMb16kXaE389N/TvX0xBsTac2UlqiG4jYALP\ni1HqVPTf/JBtQLItisMlFczkSwKBgQDbujduMaR+2gjVvRlkdBznlED+lGu8SlPi\nicFth2Htm+0SpBgkbrlXCpaAhtCYxEXH/A5mtP3V2Dpy+wFrB49bgrgJnwfsaYJS\n9ypip21CO1IzSX6nOMAnZS80rzppIihDvOt1KBgqC9pcY8Sqzl29kgXmJmOgv7xm\nfc7g0DgJ0wKBgQDge+0CktPuWQuxOhhiM3tiTaaqktlGDuE9LXxmYqP+/GCEBQUU\nkSc1hr+6akjFu9WSJ2ftMADOPhZt/R4rkzMyZb+1hS3RtkcufzEKjdAs8iKDRsVh\nbg5nJQ/7tjdhNHO3F8wXnw3AeLWh8R6zvIpBs8jlKd9x5fm1fWIz8F3cIQKBgC/w\nykVNqYFP2xufXZnwR5ozW5bwFS2I3hKQUdau8ivgmHI3wVi5m9Ck679xKrQaJsuC\ncDXyiWuN+Pq7T0zl4l5p//OBcj4fqyKk8OeDdjA8NywfffXISQyPZCRPkyP7IuPc\npVbzf4o0+disn+1Qh11kLctQVu5sxxNpoailZYSnAoGBAIeDUv15jXF3/XEWuOdu\ntOE+OnsJCOB5jZhqXorq4Bci1PrTF+MsVnK7lwlx8wBgK0miN0PSEL9n01w7jmTW\neIpTf0kvfvpaL0ZrScPBzh3sdQnjrEjBp0eIQr7zW4iQjbSHgGr+OYesWt7kMfak\nx3Z9rVD8zPEXR/w4/L7KDUP5\n-----END PRIVATE KEY-----\n",
  "client_email": "analytics@lumonata-project.iam.gserviceaccount.com",
  "client_id": "102149072300219152232",
  "auth_uri": "https://accounts.google.com/o/oauth2/auth",
  "token_uri": "https://accounts.google.com/o/oauth2/token",
  "auth_provider_x509_cert_url": "https://www.googleapis.com/oauth2/v1/certs",
  "client_x509_cert_url": "https://www.googleapis.com/robot/v1/metadata/x509/analytics%40lumonata-project.iam.gserviceaccount.com"
}
