<?xml version="1.0" encoding="utf-8"?>
<!-- Generator: Adobe Illustrator 16.0.0, SVG Export Plug-In . SVG Version: 6.00 Build 0)  -->
<!DOCTYPE svg PUBLIC "-//W3C//DTD SVG 1.1//EN" "http://www.w3.org/Graphics/SVG/1.1/DTD/svg11.dtd">
<svg version="1.1" id="Layer_1" xmlns="http://www.w3.org/2000/svg" xmlns:xlink="http://www.w3.org/1999/xlink" x="0px" y="0px"
	 width="50px" height="57px" viewBox="0 0 50 57" enable-background="new 0 0 50 57" xml:space="preserve">
<g>
	<g>
		<path fill-rule="evenodd" clip-rule="evenodd" fill="#4664AE" d="M24.99,0C11.21,0,0,11.26,0,25.08c0,1.58,0.14,3.16,0.44,4.71
			c0.02,0.09,0.07,0.37,0.17,0.84c0.38,1.69,0.95,3.36,1.68,4.95c2.69,6.359,8.61,10.561,21.6,21.029C24.22,56.87,24.61,57,25,57
			s0.78-0.13,1.109-0.391C39.09,46.141,45.02,41.939,47.71,35.58c0.729-1.59,1.3-3.24,1.681-4.95c0.1-0.47,0.149-0.75,0.17-0.84
			C49.84,28.24,50,26.66,50,25.08C49.971,11.26,38.76,0,24.99,0z"/>
		<path fill-rule="evenodd" clip-rule="evenodd" fill="#FFFFFF" d="M25,3.2c-11.94,0-21.67,9.77-21.67,21.75
			c0,11.989,9.73,21.76,21.67,21.76c11.939,0,21.67-9.771,21.67-21.76C46.67,12.97,36.939,3.2,25,3.2z"/>
	</g>
</g>
</svg>
