<svg id="XMLID_52_" xmlns="http://www.w3.org/2000/svg" viewBox="0 0 13.94 17.758">
  <defs>
    <style>
      .cls-1 {
        fill: #b88760;
      }
    </style>
  </defs>
  <path id="XMLID_75_" class="cls-1" d="M214.169,20.2h-3.783a.372.372,0,0,0-.386.354v9.7h4.555v-9.7A.4.4,0,0,0,214.169,20.2Zm-.386,2.9v7.149h-3.05V20.908h3.05Z" transform="translate(-206.564 -13.06)"/>
  <path id="XMLID_67_" class="cls-1" d="M214.959,4.688,208.86.264a1.245,1.245,0,0,0-1.467,0l-2.316,1.663-2.355,1.7-1.467,1.062a.425.425,0,0,0-.154.283v1.84a.366.366,0,0,0,.193.319.382.382,0,0,0,.386-.035l.193-.142V17.111h0v.672h11.62a4.34,4.34,0,0,0,.734-.035v-.672h0V6.918l.193.142h0a.584.584,0,0,0,.232.071.249.249,0,0,0,.154-.035A.366.366,0,0,0,215,6.776V4.936C215.075,4.83,215.037,4.759,214.959,4.688Zm-1.428,12.387H202.683V6.387l5.443-3.929,5.4,3.929Zm.811-11.007L208.358,1.75a.414.414,0,0,0-.463,0l-5.984,4.318V5.113L207.895.795a.5.5,0,0,1,.54,0l5.984,4.318v.956Z" transform="translate(-201.1 -0.025)"/>
</svg>
