<?xml version="1.0" encoding="utf-8"?>
<!-- Generator: Adobe Illustrator 19.0.0, SVG Export Plug-In . SVG Version: 6.00 Build 0)  -->
<svg version="1.1" id="Layer_1" xmlns="http://www.w3.org/2000/svg" xmlns:xlink="http://www.w3.org/1999/xlink" x="0px" y="0px"
	 viewBox="-291 377 29 40" style="enable-background:new -291 377 29 40;" xml:space="preserve">
<style type="text/css">
	.st0{fill:none;stroke:#575757;}
	.st1{fill:#575757;}
	.st2{fill:#FFFFFF;}
</style>
<g id="Group_1018" transform="translate(-249 -715)">
	<g id="Group_823" transform="translate(-400 386)">
		<line id="Line_542" class="st0" x1="372.5" y1="729.5" x2="372.5" y2="742.5"/>
		<circle id="Ellipse_182" class="st1" cx="372.5" cy="743.5" r="2.5"/>
		<circle id="Ellipse_181" class="st1" cx="372.5" cy="720.5" r="14.5"/>
	</g>
	<g id="XMLID_87_" transform="translate(255 724.182)">
		<g id="XMLID_96_" transform="translate(0 0)">
			<g id="XMLID_97_">
				<path id="XMLID_98_" class="st2" d="M-275.3,382.8c-0.1-0.2-2.5-4.1-2.5-4.2c-0.4-0.7-1.2-1.2-2-1.2c-0.1,0-0.2,0-0.4,0l0,0
					c-0.2-0.3-0.6-0.5-1-0.5c-0.6,0-1.1,0.5-1.1,1.1v1.9h-1.4v-1.9c0-0.6-0.5-1.1-1.1-1.1c-0.4,0-0.7,0.2-0.9,0.5
					c-0.1,0-0.2,0-0.3-0.1c-0.8,0-1.6,0.4-2,1.1c0,0-0.6,1-1,1.7c-0.1,0.1,0,0.3,0.1,0.4c0.1,0.1,0.3,0,0.4-0.1c0.4-0.6,1-1.7,1-1.7
					c0.5-0.9,1.7-1.1,2.6-0.6c0.5,0.3,0.9,0.9,0.9,1.6l0,0v2.7c-1-1.6-3.1-2.2-4.8-1.4c0.1-0.2,0.3-0.4,0.4-0.7
					c0.1-0.1,0-0.3-0.1-0.4c-0.1-0.1-0.3,0-0.4,0.1c-0.6,1-1.5,2.4-1.6,2.6c-0.9,1.8-0.1,4,1.7,4.9c0.5,0.2,1,0.4,1.6,0.4
					c2,0,3.6-1.6,3.7-3.6c0,0,0,0,0,0v-0.7h1.4v0.7c0,2,1.6,3.7,3.7,3.7c2,0,3.7-1.6,3.7-3.7C-274.9,383.9-275,383.3-275.3,382.8z
					 M-284.2,378.4c-0.3-0.3-0.6-0.5-0.9-0.7c0.1-0.1,0.2-0.2,0.4-0.2c0.3,0,0.6,0.3,0.6,0.6V378.4L-284.2,378.4z M-287.3,387.6
					c-1.7,0-3.1-1.4-3.1-3.1c0-1.7,1.4-3.1,3.1-3.1c1.7,0,3.1,1.4,3.1,3.1c0,0,0,0,0,0C-284.2,386.2-285.6,387.6-287.3,387.6z
					 M-283.7,382.2v-1.6h1.4v1.6H-283.7z M-282.2,383.2h-1.4v-0.5h1.4L-282.2,383.2L-282.2,383.2z M-281.7,378.1
					c0-0.3,0.3-0.6,0.6-0.6c0.1,0,0.3,0.1,0.4,0.2c-0.4,0.2-0.7,0.4-0.9,0.7V378.1z M-281.7,379.9L-281.7,379.9c0-1,0.8-1.8,1.8-1.8
					c0,0,0,0,0,0c0.6,0,1.3,0.3,1.6,0.9c0,0.1,0.7,1.2,1.4,2.3c-1.7-0.9-3.8-0.3-4.8,1.4L-281.7,379.9L-281.7,379.9z M-278.6,387.6
					c-1.7,0-3.1-1.4-3.1-3.1c0-1.7,1.4-3.1,3.1-3.1c1.7,0,3.1,1.4,3.1,3.1l0,0C-275.4,386.2-276.8,387.6-278.6,387.6z"/>
			</g>
		</g>
		<g id="XMLID_93_" transform="translate(9.942 4.958)">
			<g id="XMLID_94_">
				<path id="XMLID_95_" class="st2" d="M-286.1,378.6c-0.1-0.1-0.2-0.2-0.4-0.2c-0.1,0.1-0.2,0.2-0.2,0.4l0,0
					c0.1,0.2,0.1,0.4,0.1,0.7c0,1.1-0.9,2-2,2s-2-0.9-2-2c0-1.1,0.9-2,2-2c0.5,0,1.1,0.2,1.4,0.6c0.1,0.1,0.3,0.1,0.4,0
					c0.1-0.1,0.1-0.2,0-0.3c-0.5-0.5-1.1-0.8-1.8-0.8c-1.4,0-2.5,1.1-2.5,2.5s1.1,2.5,2.5,2.5s2.5-1.1,2.5-2.5
					C-286,379.2-286,378.9-286.1,378.6z"/>
			</g>
		</g>
		<g id="XMLID_88_" transform="translate(1.164 4.958)">
			<g id="XMLID_89_">
				<path id="XMLID_90_" class="st2" d="M-288.5,377c-1.4,0-2.5,1.1-2.5,2.5s1.1,2.5,2.5,2.5s2.5-1.1,2.5-2.5
					C-286,378.1-287.1,377-288.5,377z M-288.5,381.5c-1.1,0-2-0.9-2-2c0-1.1,0.9-2,2-2c1.1,0,2,0.9,2,2
					C-286.5,380.6-287.4,381.5-288.5,381.5C-288.5,381.5-288.5,381.5-288.5,381.5z"/>
			</g>
		</g>
	</g>
</g>
</svg>
