<svg xmlns="http://www.w3.org/2000/svg" viewBox="0 0 29 40">
  <defs>
    <style>
      .cls-1 {
        fill: none;
        stroke: #b88760;
      }

      .cls-2 {
        fill: #b88760;
      }

      .cls-3 {
        fill: #fff;
      }
    </style>
  </defs>
  <g id="attraction-hover" transform="translate(-9369 -8956)">
    <line id="Line_542" data-name="Line 542" class="cls-1" y2="13" transform="translate(9383.5 8979.5)"/>
    <circle id="Ellipse_182" data-name="Ellipse 182" class="cls-2" cx="2.5" cy="2.5" r="2.5" transform="translate(9381 8991)"/>
    <circle id="Ellipse_181" data-name="Ellipse 181" class="cls-2" cx="14.5" cy="14.5" r="14.5" transform="translate(9369 8956)"/>
    <g id="XMLID_87_" transform="translate(9375 8965.183)">
      <g id="XMLID_96_" transform="translate(0 0)">
        <g id="XMLID_97_">
          <path id="XMLID_98_" class="cls-3" d="M15.734,11.943c-.1-.228-2.479-4.123-2.53-4.2a2.325,2.325,0,0,0-2.024-1.164,1.67,1.67,0,0,0-.354.025h0A1.093,1.093,0,0,0,9.866,6.1,1.123,1.123,0,0,0,8.753,7.213V9.136H7.336V7.213A1.123,1.123,0,0,0,6.223,6.1a1.1,1.1,0,0,0-.936.531,1.481,1.481,0,0,0-.329-.051A2.43,2.43,0,0,0,2.909,7.719s-.607.987-1.037,1.72a.278.278,0,0,0,.481.278C2.707,9.11,3.39,8.023,3.39,8a1.858,1.858,0,0,1,3.44.961h0V11.64a3.658,3.658,0,0,0-4.806-1.366c.126-.228.253-.43.4-.683a.278.278,0,0,0-.481-.278c-.582.961-1.467,2.4-1.594,2.631A3.665,3.665,0,0,0,3.668,17.18a3.628,3.628,0,0,0,3.668-3.617v-.708H8.753v.708a3.668,3.668,0,0,0,7.336,0A3.174,3.174,0,0,0,15.734,11.943ZM6.8,7.466a2.556,2.556,0,0,0-.936-.708.515.515,0,0,1,.379-.152.561.561,0,0,1,.557.557v.3ZM3.668,16.7A3.137,3.137,0,1,1,6.8,13.562,3.153,3.153,0,0,1,3.668,16.7ZM7.336,11.26V9.667H8.753V11.26ZM8.778,12.3H7.336v-.506H8.753V12.3Zm.531-5.11a.561.561,0,0,1,.557-.557.515.515,0,0,1,.379.152,2.364,2.364,0,0,0-.936.708Zm0,1.8h0a1.841,1.841,0,0,1,1.847-1.847,1.867,1.867,0,0,1,1.594.885c.025.051.708,1.189,1.366,2.277a3.658,3.658,0,0,0-4.806,1.366V8.984ZM12.446,16.7a3.137,3.137,0,1,1,3.137-3.137A3.153,3.153,0,0,1,12.446,16.7Z" transform="translate(0 -6.1)"/>
        </g>
      </g>
      <g id="XMLID_93_" transform="translate(9.942 4.958)">
        <g id="XMLID_94_">
          <path id="XMLID_95_" class="cls-3" d="M44.157,27.344a.272.272,0,1,0-.506.2,1.9,1.9,0,0,1,.126.658A1.973,1.973,0,1,1,41.8,26.231a1.953,1.953,0,0,1,1.442.632.269.269,0,0,0,.4-.354A2.547,2.547,0,0,0,41.8,25.7a2.5,2.5,0,1,0,2.5,2.5A2.463,2.463,0,0,0,44.157,27.344Z" transform="translate(-39.3 -25.7)"/>
        </g>
      </g>
      <g id="XMLID_88_" transform="translate(1.164 4.958)">
        <g id="XMLID_89_">
          <path id="XMLID_90_" class="cls-3" d="M7.1,25.7a2.5,2.5,0,1,0,2.5,2.5A2.51,2.51,0,0,0,7.1,25.7Zm0,4.477A1.973,1.973,0,1,1,9.077,28.2,1.976,1.976,0,0,1,7.1,30.177Z" transform="translate(-4.6 -25.7)"/>
        </g>
      </g>
    </g>
  </g>
</svg>
