<?xml version="1.0" encoding="utf-8"?>
<!-- Generator: Adobe Illustrator 16.0.0, SVG Export Plug-In . SVG Version: 6.00 Build 0)  -->
<!DOCTYPE svg PUBLIC "-//W3C//DTD SVG 1.1//EN" "http://www.w3.org/Graphics/SVG/1.1/DTD/svg11.dtd">
<svg version="1.1" id="Layer_1" xmlns="http://www.w3.org/2000/svg" xmlns:xlink="http://www.w3.org/1999/xlink" x="0px" y="0px"
	 width="66.418px" height="26.922px" viewBox="44.293 21.544 66.418 26.922" enable-background="new 44.293 21.544 66.418 26.922"
	 xml:space="preserve">
<g id="Group_5" transform="translate(8.104 0.704) rotate(90)">
	
		<line id="XMLID_21_" fill="none" stroke="#A78823" stroke-width="2" stroke-miterlimit="10" x1="21.629" y1="-101.993" x2="46.973" y2="-69.398"/>
	
		<line id="XMLID_20_" fill="none" stroke="#A78823" stroke-width="2" stroke-miterlimit="10" x1="21.629" y1="-36.803" x2="46.973" y2="-69.398"/>
</g>
</svg>
