<?xml version="1.0" encoding="utf-8"?>
<!-- Generator: Adobe Illustrator 16.0.0, SVG Export Plug-In . SVG Version: 6.00 Build 0)  -->
<!DOCTYPE svg PUBLIC "-//W3C//DTD SVG 1.1//EN" "http://www.w3.org/Graphics/SVG/1.1/DTD/svg11.dtd">
<svg version="1.1" id="Layer_1" xmlns="http://www.w3.org/2000/svg" xmlns:xlink="http://www.w3.org/1999/xlink" x="0px" y="0px"
	 width="70.008px" height="35.004px" viewBox="0 0 70.008 35.004" enable-background="new 0 0 70.008 35.004" xml:space="preserve">
<path fill="#91B176" d="M0,0h35.004h35.004L35.004,35.004L0,0z"/>
</svg>
